{
	"id": "2aee0426-c704-4f80-b5cb-926c3c188908",
	"name": "TravisCIEnv",
	"values": [
		{
			"key": "url",
			"value": "",
			"enabled": true
		}
	],
	"_postman_variable_scope": "environment",
	"_postman_exported_at": "2022-01-08T10:42:10.018Z",
	"_postman_exported_using": "Postman/9.8.2"
}